{
	"info": {
		"_postman_id": "23fd9917-68d0-4db9-be85-ef7b48f05e56",
		"name": "GraphQL users",
		"schema": "https://schema.getpostman.com/json/collection/v2.1.0/collection.json"
	},
	"item": [
		{
			"name": "Mutation add user",
			"request": {
				"method": "POST",
				"header": [],
				"body": {
					"mode": "graphql",
					"graphql": {
						"query": "mutation {\r\n  addUser(userInput: { userName: \"Amy\", role: \"client\", active: true }) {\r\n    id\r\n    userName\r\n    role\r\n    active\r\n  }\r\n}",
						"variables": ""
					}
				},
				"url": {
					"raw": "http://localhost:4000/graphql",
					"protocol": "http",
					"host": [
						"localhost"
					],
					"port": "4000",
					"path": [
						"graphql"
					]
				}
			},
			"response": []
		},
		{
			"name": "Query get users",
			"request": {
				"method": "POST",
				"header": [],
				"body": {
					"mode": "graphql",
					"graphql": {
						"query": "query {\r\n    getUsers {\r\n        id\r\n        userName\r\n        role\r\n        active\r\n    }\r\n}\r\n",
						"variables": ""
					}
				},
				"url": {
					"raw": "http://localhost:4000/graphql",
					"protocol": "http",
					"host": [
						"localhost"
					],
					"port": "4000",
					"path": [
						"graphql"
					]
				}
			},
			"response": []
		}
	],
	"protocolProfileBehavior": {}
}